AAA|Δόση
AAB|Δόση
AAE|Δόση
AAF|Δόση
AAG|Δόση
AAH|Δόση
AAJ|Δόση
AAK|Δόση
AAY|Δόση
AAZ|Δόση
ABA|Δόση
ABB|Δόση
ABC|Δόση
ABD|Δόση
ABF|Δόση
ABG|Δόση
ABY|Δόση
ABZ|Δόση
ACA|Δόση
ACD|Δόση
ACE|Δόση
ACF|Δόση
ACG|Δόση
ACS|Δόση
ACY|Δόση
ACZ|Δόση
ADD|Δόση
ADE|Δόση
ADF|Δόση
ADG|Δόση
ADP|Δόση
ADQ|Δόση
ADR|Δόση
ADY|Δόση
ADZ|Δόση
AEA|Δόση
AEB|Δόση
AEF|Δόση
AEP|Δόση
AEY|Δόση
AEZ|Δόση
ASB|Δόση
AYG|Δόση
AYH|Δόση
AYZ|Δόση
BAA|Δόση
BAE|Δόση
BAJ|Δόση
BAY|Δόση
BAZ|Δόση
BBA|Δόση
BBC|Δόση
BBD|Δόση
BBN|Δόση
BBY|Δόση
BBZ|Δόση
BCA|Δόση
BCN|Δόση
BCY|Δόση
BCZ|Δόση
BDY|Δόση
BEA|Δόση
BEB|Δόση
BEP|Δόση
BEY|Δόση
DDY|Δόση
DEH|ml
DEK|ml
DEP|Δόση
DEY|ml
DEZ|ml
DGA|ml
DGB|Πόσιμες Σταγόνες
DGC|Εφαρμογές
DGF|ml
DGH|ml
DGJ|ml
DGK|ml
DGL|ml
DGM|ml
DGN|Δόση
DGP|Εφαρμογές
DGR|ml
DGY|ml
DGZ|ml
DHP|Δόση
DKA|ml
DKB|ml
DKJ|ml
DKP|Δόση
DKV|Δόση
DKY|ml
DYG|Δόση
DYH|Δόση
EEK|ml
EEP|Δόση
EGA|ml
EGB|Πόσιμες Σταγόνες
EGM|ml
FMA|Δόση
FMB|Δόση
FMC|Δόση
FMD|Δόση
FME|Δόση
FMY|Δόση
FMZ|Δόση
FNA|Δόση
FNB|Δόση
FNC|Δόση
FND|Δόση
FNE|Δόση
FNF|ml
FNG|ml
FNY|ml
FNZ|ml
FPA|ml
FPB|ml
FPC|ml
FPD|ml
FPE|ml
FPF|ml
FPG|ml
FPP|Δόση
FPY|ml
FPZ|ml
FQA|Δόση
FQB|Δόση
FQC|ml
FQD|ml
FQE|ml
FQF|ml
FQY|ml
GMA|Δόση
GMB|Δόση
GMD|Δόση
GME|Δόση
GMY|Δόση
GNA|Δόση
GNB|Δόση
GND|Δόση
GNE|Δόση
GNF|Δόση
GNG|Δόση
GNY|Δόση
GPA|ml
GPB|ml
GPD|ml
GPE|ml
GPF|ml
GPP|Δόση
GPY|ml
GYV|Δόση
HAX|Δόση
HCA|Δόση
HEK|Δόση
HEX|Δόση
HGX|Δόση
HHP|Εφαρμογές
HHT|Εφαρμογές
HLA|Δόση
HLB|Δόση
HLC|Δόση
HLX|Δόση
HLY|Δόση
HSP|Δόση
HVA|Εφαρμογές
IGB|Σταγόνες
IGJ|ml
IGN|Δόση
IGP|Εφαρμογές
IHP|Εφαρμογές
ISA|Εφαρμογές
IVP|Δόση
JCT|Δόση
JCV|Δόση
JD|Δόση
JDY|Δόση
JEA|ml
JEY|ml
JFA|Εφαρμογές
JGA|ml
JGB|Σταγόνες
JGC|Εφαρμογές
JGE|ml
JGH|ml
JGN|Δόση
JGP|Εφαρμογές
JGY|ml
JHA|Εφαρμογές
JHP|Δόση
JHT|Εφαρμογές
JPP|Δόση
JSA|Εφαρμογές
JSP|Δόση
JTA|Εφαρμογές
JTP|Δόση
JVA|Δόση
JVP|Δόση
JWN|Δόση
JYM|Εφαρμογές
KAE|Δόση
KAF|Δόση
KAG|Δόση
KAH|Δόση
KAK|Δόση
KAZ|Δόση
KCA|Δόση
KDD|Δόση
KDE|Δόση
KDF|Δόση
KDG|Δόση
KDY|Δόση
KEA|Εφαρμογές
KEB|Εφαρμογές
KEK|Εφαρμογές
KEP|Δόση
KEZ|Εφαρμογές
KGA|Εφαρμογές
KGB|Εφαρμογές
KGC|Εφαρμογές
KGD|Εφαρμογές
KGH|Εφαρμογές
KGJ|Εφαρμογές
KGK|Εφαρμογές
KGL|Εφαρμογές
KGN|Δόση
KGP|Εφαρμογές
KGS|Εφαρμογές
KHA|Εφαρμογές
KHP|Εφαρμογές
KSA|Εφαρμογές
KSB|Εφαρμογές
KSZ|Εφαρμογές
KTA|Εφαρμογές
KTZ|Εφαρμογές
KVA|Εφαρμογές
KVP|Δόση
KWE|Δόση
KWH|Δόση
KWY|Δόση
KYK|Δόση
KYM|Εφαρμογές
KZE|Δόση
KZH|Δόση
KZJ|Δόση
KZV|Δόση
KZY|Δόση
MAA|Δόση
MAH|Δόση
MAK|Δόση
MAZ|Δόση
MCV|Δόση
MDY|Δόση
MEA|Εφαρμογές
MEB|Εφαρμογές
MEC|Εφαρμογές
MEK|Εφαρμογές
MEP|Δόση
MEX|Δόση
MEY|Εφαρμογές
MEZ|Δόση
MGA|Εφαρμογές
MGB|Σταγόνες
MGC|Εφαρμογές
MGD|Εφαρμογές
MGE|Εφαρμογές
MGH|Εφαρμογές
MGJ|ml
MGK|Εφαρμογές
MGL|Εφαρμογές
MGN|Δόση
MGP|Εφαρμογές
MGR|Εφαρμογές
MGS|Εφαρμογές
MGT|Εφαρμογές
MGW|Εφαρμογές
MGX|Εφαρμογές
MGZ|Εφαρμογές
MHA|Εφαρμογές
MHC|Εφαρμογές
MHP|Εφαρμογές
MHS|Εφαρμογές
MHT|Εφαρμογές
MHW|Εφαρμογές
MHY|Εφαρμογές
MHZ|Εφαρμογές
MJA|Εφαρμογές
MJB|Εφαρμογές
MJH|Εφαρμογές
MJL|Εφαρμογές
MJP|Εφαρμογές
MJS|Εφαρμογές
MJT|Εφαρμογές
MJV|Εφαρμογές
MJY|Εφαρμογές
MJZ|Εφαρμογές
MLA|Δόση
MLB|Δόση
MLC|Δόση
MLX|Δόση
MLY|Δόση
MLZ|Δόση
MMA|Εφαρμογές
MMB|Εφαρμογές
MMS|Εφαρμογές
MMY|Εφαρμογές
MNA|Εφαρμογές
MNS|Εφαρμογές
MNY|Εφαρμογές
MPA|Εφαρμογές
MPB|Εφαρμογές
MPS|Εφαρμογές
MPY|Εφαρμογές
MQS|Εφαρμογές
MSA|Εφαρμογές
MSB|Εφαρμογές
MSL|Εφαρμογές
MSP|Δόση
MSW|Εφαρμογές
MSY|Εφαρμογές
MSZ|Εφαρμογές
MTA|Εφαρμογές
MTL|Εφαρμογές
MTP|Εφαρμογές
MTW|Εφαρμογές
MTY|Εφαρμογές
MTZ|Εφαρμογές
MVA|Εφαρμογές
MVL|Εφαρμογές
MVP|Δόση
MVW|Εφαρμογές
MVY|Εφαρμογές
MVZ|Εφαρμογές
MW|Εφαρμογές
MWA|Εφαρμογές
MWB|Εφαρμογές
MWC|Εφαρμογές
MWD|Εφαρμογές
MWE|Εφαρμογές
MWG|Εφαρμογές
MWH|Εφαρμογές
MWS|Εφαρμογές
MWY|Εφαρμογές
MWZ|Εφαρμογές
MYK|Εφαρμογές
MYM|Εφαρμογές
MYP|Εφαρμογές
MYS|Εφαρμογές
MYT|Εφαρμογές
MYW|Εφαρμογές
MYY|Εφαρμογές
MZA|Εφαρμογές
MZB|Εφαρμογές
MZC|Εφαρμογές
MZD|Εφαρμογές
MZE|Εφαρμογές
MZG|Εφαρμογές
MZH|Εφαρμογές
MZJ|Εφαρμογές
MZK|Εφαρμογές
MZP|Εφαρμογές
MZV|Εφαρμογές
MZY|Εφαρμογές
NAZ|Δόση
NDN|Δόση
NGA|Σταγόνες
NGB|Σταγόνες
NGH|Σταγόνες
NGJ|Σταγόνες
NGK|Σταγόνες
NGN|Σταγόνες
NGP|Σταγόνες
NGS|Εφαρμογές
NGZ|Σταγόνες
NHA|Εφαρμογές
NMA|Σταγόνες
NMB|Σταγόνες
NNA|Δόση
NPA|Σταγόνες
NPB|Σταγόνες
NPS|Εφαρμογές
NSA|Εφαρμογές
NSP|Εφαρμογές
NTA|Εφαρμογές
NVA|Εφαρμογές
NVB|Εφαρμογές
NVP|Εφαρμογές
NWC|Εφαρμογές
NWD|Εφαρμογές
NZD|Εφαρμογές
NZT|Εφαρμογές
NZV|Δόση
NZY|Δόση
PGA|Σταγόνες
PGB|Σταγόνες
PGJ|Σταγόνες
PGK|Σταγόνες
PGN|Σταγόνες
PGP|Σταγόνες
PSA|Εφαρμογές
PTA|Εφαρμογές
PYK|Δόση
QCA|Εφαρμογές
QCT|Εφαρμογές
QEA|Εφαρμογές
QEP|Εφαρμογές
QGA|Σταγόνες
QGB|Σταγόνες
QGC|Εφαρμογές
QGE|Εφαρμογές
QGH|Εφαρμογές
QGK|Εφαρμογές
QGL|Εφαρμογές
QGN|Εφαρμογές
QGP|Εφαρμογές
QGZ|Εφαρμογές
QHA|Εφαρμογές
QHP|Εφαρμογές
QMA|Σταγόνες
QNA|Δόση
QSA|Εφαρμογές
QSL|Εφαρμογές
QTA|Εφαρμογές
QVA|Εφαρμογές
QVP|Εφαρμογές
QYM|Εφαρμογές
RCT|Δόση
REM|Δόση
REN|Δόση
REP|Δόση
RGE|Εφαρμογές
RGN|Εφαρμογές
RGP|Εφαρμογές
RHC|Εφαρμογές
RHM|Εφαρμογές
RHN|Εφαρμογές
RHP|Εφαρμογές
RHQ|Εφαρμογές
RYJ|Δόση
TAA|Δόση
TAH|Δόση
TAK|Δόση
TAY|Δόση
TAZ|Δόση
TCA|Δόση
TEA|Εφαρμογές
TEK|Εφαρμογές
TEP|Εφαρμογές
TGA|Εφαρμογές
TGL|Εφαρμογές
TGN|Εφαρμογές
TGP|Εφαρμογές
TGS|Εφαρμογές
TGW|Εφαρμογές
THA|Εφαρμογές
THT|Εφαρμογές
TLS|Δόση
TLZ|Δόση
TMA|Δόση
TSA|Εφαρμογές
TSB|Εφαρμογές
TSP|Εφαρμογές
TTA|Εφαρμογές
TTP|Εφαρμογές
TTZ|Εφαρμογές
TVA|Εφαρμογές
TVP|Εφαρμογές
TWE|Δόση
TWH|Εφαρμογές
TYQ|Δόση
TYR|Δόση
TYT|Εφαρμογές
TYY|Εφαρμογές
TZD|Εφαρμογές
TZE|Δόση
TZQ|Δόση
VAA|Δόση
VAH|Δόση
VAK|Δόση
VAZ|Δόση
VEA|Δόση
VEB|Δόση
VED|Δόση
VEH|Δόση
VEK|Δόση
VEP|Δόση
VGA|Δόση
VGB|Δόση
VGC|Δόση
VGN|Δόση
VGP|Δόση
VHA|Δόση
VHT|Δόση
VMA|Δόση
VMB|Δόση
VPA|Δόση
VSB|Δόση
VSP|Δόση
VTA|Δόση
VTP|Δόση
VVA|Δόση
VW|Δόση
VWC|Δόση
VYY|Δόση
VZT|Δόση
VZV|Δόση
VZY|Δόση
ZEA|Δόση
ZEB|Δόση
ZEY|Δόση
ZGA|ml
ZGH|Εφαρμογές
ZYX|Δόση
ZYY|Δόση
ZZZ|Δόση