"2","Universidad de Almería"
"3","Universidad de Cádiz"
"4","Universidad de Córdoba"
"5","Universidad de Granada"
"6","Universidad de Huelva"
"7","Universidad Internacional de Andalucía"
"8","Universidad de Jaén"
"9","Universidad de Málaga"
"10","Universidad Pablo de Olavide"
"11","Universidad de Sevilla"
"12","Universidad de Zaragoza"
"13","Universidad San Jorge"
"14","Universidad de La Laguna"
"15","Universidad de Las Palmas de Gran Canaria"
"16","Universidad de Cantabria"
"17","Universidad Internacional Menéndez Pelayo (UI"
"18","Universidad de Castilla La Mancha"
"19","Universidad de Burgos"
"20","Universidad Católica de Ávila"
"21","Universidad Europea Miguel de Cervantes"
"22","IE Universidad"
"23","Universidad de León"
"24","Universidad Pontificia de Salamanca"
"25","Universidad de Salamanca"
"26","Universidad de Valladolid"
"27","Universitat Abat Oliba CEU"
"28","Universitat Autónoma de Barcelona"
"29","Universitat de Barcelona"
"30","Universitat de Girona"
"31","Universitat Internacional de Catalunya"
"32","Universitat de Lleida"
"33","Universitat Oberta de Catalunya"
"34","Universitat Politécnica de Catalunya"
"35","Universitat Pompeu Fabra"
"36","Universitat Ramon Llull"
"37","Universitat Rovira i Virgili"
"38","Universitat de Vic"
"39","Universidad Alfonso X El Sabio"
"40","Universidad de Alcalá"
"41","Universidad Antonio de Nebrija"
"42","Universidad Autónoma de Madrid"
"43","Universidad Camilo José Cela"
"44","Universidad Carlos III de Madrid"
"45","Universidad Complutense de Madrid"
"46","Universidad a Distancia de Madrid"
"47","Universidad Europea de Madrid"
"48","Universidad Francisco de Vitoria"
"49","Universidad Nacional de Educación a Distancia"
"50","Universidad Politécnica de Madrid"
"51","Universidad Pontificia de Comillas"
"52","Universidad Rey Juan Carlos"
"53","Universidad de San Pablo-CEU"
"54","Universidad de Navarra"
"55","Universidad Pública de Navarra"
"56","Universidad de Alicante"
"57","Universitat Jaume I"
"58","Universidad Miguel Hernández"
"59","Universitat Politècnica de València"
"60","Universitat de València"
"61","Universitat CEU Cardenal Herrera"
"62","Universidad Católica de Valencia 'San Vicente'"
"63","Universidad de Extremadura"
"64","Universidade da Coruña"
"65","Universidade de Santiago de Compostela"
"66","Universidade de Vigo"
"67","Universitat de Les Illes Balears"
"68","Universidad de La Rioja"
"69","Universidad Internacional de la Rioja"
"70","Mondragon Unibertsitatea"
"71","Universidad de Deusto"
"72","Universidad del País Vasco"
"73","Universidad de Oviedo"
"74","Universidad Politécnica de Cartagena"
"75","Universidad Católica de San Antonio"
"76","Universidad de Murcia"